…
``` r
> names(anno)
[1] "coreference" "dependency"  "document"    "entity"      "sentence"
[6] "token"       "vector"
```

The individual tables can be referenced with the generic R accessor
functions (such as `‘[[‘`), however the preferred method is to call the
relevant *cleanNLP* functions of the form `get_TABLENAME()`. For
example, the tokens table for this example can be accessed with the
`get_token` function.

``` r
> get_token(anno)
# A tibble: 61 x 8
      id   sid   tid    word lemma  upos   pos   cid
   <int> <int> <int>   <chr> <chr> <chr> <chr> <int>
1      1     0     1     The  <NA>  <NA>  <NA>    NA
2      1     0     2 regular  <NA>  <NA>  <NA>    NA
3      1     0     3   early  <NA>  <NA>  <NA>    NA
4      1     0     4 morning  <NA>  <NA>  <NA>    NA
5      1     0     5    yell  <NA>  <NA>  <NA>    NA
6      1     0     6      of  <NA>  <NA>  <NA>    NA
7      1     0     7  horror  <NA>  <NA>  <NA>    NA
8      1     0     8     was  <NA>  <NA>  <NA>    NA
9      1     0     9     the  <NA>  <NA>  <NA>    NA
10     1     0    10   sound  <NA>  <NA>  <NA>    NA
# ... with 51 more rows
```
…
``` r
> init_spaCy()
> anno <- run_annotators(tf)
> get_token(anno)
# A tibble: 68 x 8
      id   sid   tid    word   lemma  upos   pos   cid
   <int> <int> <int>   <chr>   <chr> <chr> <chr> <int>
1      1     1     1     The     the   DET    DT     0
2      1     1     2 regular regular   ADJ    JJ     4
3      1     1     3   early   early   ADJ    JJ    12
4      1     1     4 morning morning  NOUN    NN    18
5      1     1     5    yell    yell  NOUN    NN    26
6      1     1     6      of      of   ADP    IN    31
7      1     1     7  horror  horror  NOUN    NN    34
8      1     1     8     was      be  VERB   VBD    41
9      1     1     9     the     the   DET    DT    45
10     1     1    10   sound   sound  NOUN    NN    49
# ... with 58 more rows
```
…
The third and final back end currently available uses the Java library
coreNLP. Users must install Java version 1.8 or higher and link it to R
using the [*rJava*](https://CRAN.R-project.org/package=rJava). The
coreNLP models, which are over 1 GB, can then be either manually
downloaded or grabbed using the helper function `download_coreNLP()`.
Once installed, the back end works just as with the other back ends.

``` r
> init_coreNLP()
> anno <- run_annotators(tf)
> get_token(anno)
# A tibble: 68 x 8
      id   sid   tid    word   lemma  upos   pos   cid
   <int> <int> <int>   <chr>   <chr> <chr> <chr> <int>
1      1     1     1     The     the   DET    DT     0
2      1     1     2 regular regular   ADJ    JJ     4
3      1     1     3   early   early   ADJ    JJ    12
4      1     1     4 morning morning  NOUN    NN    18
5      1     1     5    yell    yell  VERB    VB    26
6      1     1     6      of      of   ADP    IN    31
7      1     1     7  horror  horror  NOUN    NN    34
8      1     1     8     was      be  VERB   VBD    41
9      1     1     9     the     the   DET    DT    45
10     1     1    10   sound   sound  NOUN    NN    49
# ... with 58 more rows
```
…
The token table contains one row for each unique token, usually a word
or punctuation mark, in any document in the corpus. Any annotator that
produces an output for each token has its results displayed here. These
include the lemmatizer and the part of the speech tagger
[@toutanova2000enriching]. Table [3](#args:token) shows the required
columns contained in the token table. Given the annotators selected
during the pipeline initialization, some of these columns may contain
only missing data. A composite key exists by taking together the
document id, sentence id, and token id. There is also a foreign key,
`cid`, giving the character offset back into the original source
document. An example of the table looks like this:

``` r
> get_token(obama, include_root = TRUE)
# A tibble: 65,758 x 8
      id   sid   tid      word     lemma  upos   pos   cid
   <int> <int> <int>     <chr>     <chr> <chr> <chr> <int>
1      1     1     0      ROOT      ROOT  <NA>  <NA>    NA
2      1     1     1     Madam     madam PROPN   NNP     0
3      1     1     2   Speaker   speaker PROPN   NNP     6
4      1     1     3         ,         , PUNCT     ,    13
5      1     1     4       Mr.       mr. PROPN   NNP    15
6      1     1     5      Vice      vice PROPN   NNP    19
7      1     1     6 President president PROPN   NNP    24
8      1     1     7         ,         , PUNCT     ,    33
9      1     1     8   Members   members PROPN  NNPS    35
10     1     1     9        of        of   ADP    IN    43
# ... with 65,748 more rows
```
…
The output, equivalently using a call to `get_dependency`, is given by:

``` r
> get_dependency(obama, get_token = TRUE)
# A tibble: 62,781 x 10
      id   sid   tid tid_target relation relation_full      word     lemma
   <int> <int> <int>      <int>    <chr>         <chr>     <chr>     <chr>
1      1     1     2          1 compound          <NA>   Speaker   speaker
2      1     1     0          2     ROOT          <NA>      ROOT      ROOT
3      1     1     2          3    punct          <NA>   Speaker   speaker
4      1     1     6          4 compound          <NA> President president
5      1     1     6          5 compound          <NA> President president
6      1     1     2          6    appos          <NA>   Speaker   speaker
7      1     1     6          7    punct          <NA> President president
8      1     1     6          8    appos          <NA> President president
9      1     1     8          9     prep          <NA>   Members   members
10     1     1     9         10     pobj          <NA>        of        of
   word_target lemma_target
         <chr>        <chr>
1        Madam        madam
2      Speaker      speaker
3            ,            ,
4          Mr.          mr.
5         Vice         vice
6    President    president
7            ,            ,
8      Members      members
9           of           of
10    Congress     congress
# ... with 62,771 more rows
```
…
An example of the named entity table is given by:

``` r
> get_entity(obama)
# A tibble: 3,035 x 6
      id   sid   tid tid_end entity_type              entity
   <int> <int> <int>   <int>       <chr>               <chr>
1      1     1     1       2      PERSON       Madam Speaker
2      1     1     8      10         ORG Members of Congress
3      1     1    12      14         ORG      the First Lady
4      1     1    16      18         GPE   the United States
5      1     1    30      30        TIME             tonight
6      1     1    43      44       EVENT            Chamber,
7      1     2     6       6        NORP           Americans
8      1     4    24      25        DATE           every day
9      1     8    23      23        TIME             tonight
10     1     8    27      27        NORP            American
# ... with 3,025 more rows
```
…
An example helps to explain exactly what the coreference table
represents:

``` r
> get_coreference(obama)
# A tibble: 6,982 x 12
      id   rid   mid                      mention mention_type   number  gender
   <int> <int> <int>                        <chr>        <chr>    <chr>   <chr>
1      1  2049     7            the United States       PROPER SINGULAR NEUTRAL
2      1  2049    77 the United States of America       PROPER SINGULAR NEUTRAL
3      1  2049   102                      America       PROPER SINGULAR NEUTRAL
4      1  2049   315                      America       PROPER SINGULAR NEUTRAL
5      1  2049   742                   America 's       PROPER SINGULAR NEUTRAL
6      1  2049   782                      America       PROPER SINGULAR NEUTRAL
7      1  2049   939                      America       PROPER SINGULAR NEUTRAL
8      1  2049   991                      America       PROPER SINGULAR NEUTRAL
9      1  2049  1003                      America       PROPER SINGULAR NEUTRAL
10     1  2049  1045                      America       PROPER SINGULAR NEUTRAL
     animacy   sid   tid tid_end tid_head
       <chr> <dbl> <int>   <int>    <int>
1  INANIMATE     1    16      18       18
2  INANIMATE     8    41      45       43
3  INANIMATE    12     6       6        6
4  INANIMATE    40    12      12       12
5  INANIMATE   103     8       9        8
6  INANIMATE   109     8       8        8
7  INANIMATE   132     5       5        5
8  INANIMATE   138    27      27       27
9  INANIMATE   140    41      41       41
10 INANIMATE   147     4       4        4
# ... with 6,972 more rows
```
…
The sentiment tagger provided by the CoreNLP pipeline predicts whether a
sentence is very negative (0), negative (1), neutral (2), positive (3),
or very positive (4) [@socher2013recursive]. There is no native
sentiment model currently supported by spaCy. The sentiment output is
placed in a separate table because it returns information exclusively at
the sentence level, unlike any of the other parsers. The schema,
described in Table [7](#args:sentiment), has the document and sentence
ids serving as composite keys, with the only other field being an
integer sentiment code. An example of the output can be seen in:

``` r
> get_sentence(obama)
# A tibble: 2,988 x 3
      id   sid sentiment
   <int> <dbl>     <int>
1      1     1         1
2      1     2         3
3      1     3         1
4      1     4         1
5      1     5         2
6      1     6         1
7      1     7         3
8      1     8         1
9      1     9         1
10     1    10         1
# ... with 2,978 more rows
```
…
