…
``` r
u <- unnest_calls(df, expr)
u
```

``` r
#> # A tibble: 35 x 4
#>    file                                             line func   args       
#>    <chr>                                           <int> <chr>  <list>     
#>  1 /Library/Frameworks/R.framework/Versions/3.5/R~     1 libra~ <list [1]> 
#>  2 /Library/Frameworks/R.framework/Versions/3.5/R~     2 libra~ <list [1]> 
#>  3 /Library/Frameworks/R.framework/Versions/3.5/R~     3 <-     <list [2]> 
#>  4 /Library/Frameworks/R.framework/Versions/3.5/R~     3 %>%    <list [2]> 
#>  5 /Library/Frameworks/R.framework/Versions/3.5/R~     3 %>%    <list [2]> 
#>  6 /Library/Frameworks/R.framework/Versions/3.5/R~     3 mutate <named lis~
#>  7 /Library/Frameworks/R.framework/Versions/3.5/R~     3 /      <list [2]> 
#>  8 /Library/Frameworks/R.framework/Versions/3.5/R~     3 (      <list [1]> 
#>  9 /Library/Frameworks/R.framework/Versions/3.5/R~     3 ^      <list [2]> 
#> 10 /Library/Frameworks/R.framework/Versions/3.5/R~     3 (      <list [1]> 
#> # ... with 25 more rows
```

This results is a tidy data frame with two additional columns: `func`
the name of the function called and `args` the arguments of the function
called. Because this function takes a data frame as the first argument,
it works nicely with the tidyverse data manipulation packages. For
example, we could get the same data frame as above by using the
following code.

``` r
df %>%
  unnest_calls(expr)
```

``` r
#> # A tibble: 35 x 4
#>    file                                             line func   args       
#>    <chr>                                           <int> <chr>  <list>     
#>  1 /Library/Frameworks/R.framework/Versions/3.5/R~     1 libra~ <list [1]> 
#>  2 /Library/Frameworks/R.framework/Versions/3.5/R~     2 libra~ <list [1]> 
#>  3 /Library/Frameworks/R.framework/Versions/3.5/R~     3 <-     <list [2]> 
#>  4 /Library/Frameworks/R.framework/Versions/3.5/R~     3 %>%    <list [2]> 
#>  5 /Library/Frameworks/R.framework/Versions/3.5/R~     3 %>%    <list [2]> 
#>  6 /Library/Frameworks/R.framework/Versions/3.5/R~     3 mutate <named lis~
#>  7 /Library/Frameworks/R.framework/Versions/3.5/R~     3 /      <list [2]> 
#>  8 /Library/Frameworks/R.framework/Versions/3.5/R~     3 (      <list [1]> 
#>  9 /Library/Frameworks/R.framework/Versions/3.5/R~     3 ^      <list [2]> 
#> 10 /Library/Frameworks/R.framework/Versions/3.5/R~     3 (      <list [1]> 
#> # ... with 25 more rows
```

We can further manipulate this, for example we could select just the
`func` and `args` columns using
[*dplyr*](https://CRAN.R-project.org/package=dplyr)'s `select()`
function.

``` r
df %>%
  unnest_calls(expr) %>%
  select(func, args)
```

``` r
#> # A tibble: 35 x 2
#>    func    args            
#>    <chr>   <list>          
#>  1 library <list [1]>      
#>  2 library <list [1]>      
#>  3 <-      <list [2]>      
#>  4 %>%     <list [2]>      
#>  5 %>%     <list [2]>      
#>  6 mutate  <named list [1]>
#>  7 /       <list [2]>      
#>  8 (       <list [1]>      
#>  9 ^       <list [2]>      
#> 10 (       <list [1]>      
#> # ... with 25 more rows
```
…
``` r
u %>%
  inner_join(get_classifications()) %>%
  select(func, classification, lexicon, score)
```

``` r
#> # A tibble: 322 x 4
#>    func    classification lexicon       score
#>    <chr>   <chr>          <chr>         <dbl>
#>  1 library setup          crowdsource 0.687  
#>  2 library import         crowdsource 0.213  
#>  3 library visualization  crowdsource 0.0339 
#>  4 library data cleaning  crowdsource 0.0278 
#>  5 library modeling       crowdsource 0.0134 
#>  6 library exploratory    crowdsource 0.0128 
#>  7 library communication  crowdsource 0.00835
#>  8 library evaluation     crowdsource 0.00278
#>  9 library export         crowdsource 0.00111
#> 10 library setup          leeklab     0.994  
#> # ... with 312 more rows
```
…
``` r
u %>%
  inner_join(get_classifications("crowdsource")) %>%
  select(func, classification, score)
```

``` r
#> # A tibble: 271 x 3
#>    func    classification   score
#>    <chr>   <chr>            <dbl>
#>  1 library setup          0.687  
#>  2 library import         0.213  
#>  3 library visualization  0.0339 
#>  4 library data cleaning  0.0278 
#>  5 library modeling       0.0134 
#>  6 library exploratory    0.0128 
#>  7 library communication  0.00835
#>  8 library evaluation     0.00278
#>  9 library export         0.00111
#> 10 library setup          0.687  
#> # ... with 261 more rows
```
It is possible for a function to belong to multiple classes. This will
result in multiple lines (and multiple classifications) for a given
function. By default, these multiple classifications are included along
with the prevalence of each, indicated by the `score` column. To merge
in only the most prevalent classification, set the `include_duplicates`
option to `FALSE`.

``` r
u %>%
  inner_join(get_classifications("crowdsource", include_duplicates = FALSE)) %>%
  select(func, classification)
```

``` r
#> # A tibble: 33 x 2
#>    func    classification
#>    <chr>   <chr>         
#>  1 library setup         
#>  2 library setup         
#>  3 <-      data cleaning 
#>  4 %>%     data cleaning 
#>  5 %>%     data cleaning 
#>  6 mutate  data cleaning 
#>  7 /       data cleaning 
#>  8 (       data cleaning 
#>  9 ^       modeling      
#> 10 (       data cleaning 
#> # ... with 23 more rows
```
…
  : Table 1: Average percent of functions spent on each task.
:::

We can also examine the most common functions in each classification.

``` r
func_counts <- classification_tbl %>%
  count(func, classification, sort = TRUE) %>%
  ungroup()

func_counts
```

``` r
#> # A tibble: 152 x 3
#>    func      classification     n
#>    <chr>     <chr>          <int>
#>  1 summary   exploratory      361
#>  2 lm        modeling         277
#>  3 factor    data cleaning    141
#>  4 select    data cleaning    138
#>  5 library   setup            128
#>  6 as.factor data cleaning    116
#>  7 filter    data cleaning    107
#>  8 aes       visualization     89
#>  9 ggplot    visualization     82
#> 10 lmer      modeling          80
#> # ... with 142 more rows
```
…
``` r
func_counts <- pkg_data %>%
  unnest_calls(expr) %>%
  count(pkg, func, sort = TRUE)

func_counts
```

``` r
#> # A tibble: 1,163 x 3
#>    pkg       func         n
#>    <chr>     <chr>    <int>
#>  1 datatable =         1640
#>  2 dplyr     <-        1634
#>  3 datatable if        1590
#>  4 datatable {         1172
#>  5 dplyr     {         1047
#>  6 dplyr     function   724
#>  7 datatable !          616
#>  8 datatable <-         579
#>  9 datatable [          564
#> 10 datatable length     557
#> # ... with 1,153 more rows
```
…
