PubChemR: An R Package for Accessing Chemical Data from PubChem
…
 NOTE: Run getter function 'retrieve()' with element name above to extract data from corresponding list. 
       See ?retrieve for details. 

The instance function retrieves detailed information about the specific compound, including its various components (known as slots). In this example, the compound has seven slots: id, atoms, bonds, coords, charge, props, and count. To extract specific data elements from the compound data, we can use the retrieve function with the relevant slots. For example, using the props slot extracts detailed properties of the compound, including information such as label, name, data type, release, value, implementation, version, software, and source. This comprehensive information covers various physical, chemical, and structural properties of the compound.

retrieve(object = compound_aspirin, .slot = "props", .to.data.frame = TRUE)

# A tibble: 23 × 11
   Identifier label        name  datatype release value implementation
   <chr>      <chr>        <chr> <chr>    <chr>   <chr> <chr>         
 1 aspirin    Compound     Cano… 5        2025.0… 1     <NA>          
 2 aspirin    Compound Co… <NA>  7        2025.0… 212   E_COMPLEXITY  
 3 aspirin    Count        Hydr… 5        2025.0… 4     E_NHACCEPTORS 
 4 aspirin    Count        Hydr… 5        2025.0… 1     E_NHDONORS    
 5 aspirin    Count        Rota… 5        2025.0… 3     E_NROTBONDS   
 6 aspirin    Fingerprint  SubS… 16       2025.0… 0000… E_SCREEN      
 7 aspirin    IUPAC Name   Allo… 1        2025.0… 2-ac… <NA>          
 8 aspirin    IUPAC Name   CAS-… 1        2025.0… 2-ac… <NA>          
 9 aspirin    IUPAC Name   Mark… 1        2025.0… 2-ac… <NA>          
10 aspirin    IUPAC Name   Pref… 1        2025.0… 2-ac… <NA>          
# ℹ 13 more rows
# ℹ 4 more variables: version <chr>, software <chr>, source <chr>,
#   parameters <chr>
…
 NOTE: Run getter function 'retrieve()' with element name above to extract data from corresponding list. 
       See ?retrieve for details. 

The output provides a detailed view of the assay_485314 object, which is of class ‘PubChemInstance’. It includes both request details and instance details

The output also notes that we can use the retrieve function with the element names above to extract data from the corresponding list. For example, we can retrieve the results of the assay, providing detailed data on the outcomes observed during the assay:

retrieve(object = assays, .which = 485314, .slot = "results")

# A tibble: 41 × 8
   Identifier tid   name           description type  unit  ac    tc   
        <dbl> <chr> <chr>          <chr>       <chr> <chr> <chr> <chr>
 1     485314 1     Phenotype      Indicates … 4     254   <NA>  <NA> 
 2     485314 2     Potency        Concentrat… 1     5     TRUE  <NA> 
 3     485314 3     Efficacy       Maximal ef… 1     15    <NA>  <NA> 
 4     485314 4     Analysis Comm… Annotation… 4     254   <NA>  <NA> 
 5     485314 5     Curve_Descrip… A descript… 4     254   <NA>  <NA> 
 6     485314 6     Fit_LogAC50    The logari… 1     254   <NA>  <NA> 
 7     485314 7     Fit_HillSlope  The Hill s… 1     254   <NA>  <NA> 
 8     485314 8     Fit_R2         R^2 fit va… 1     254   <NA>  <NA> 
 9     485314 9     Fit_InfiniteA… The asympt… 1     15    <NA>  <NA> 
10     485314 10    Fit_ZeroActiv… Efficacy a… 1     15    <NA>  <NA> 
# ℹ 31 more rows
…
