The R Journal: Automating Reproducible, Collaborative Clinical Trial Document Generation with the \pkg{listdown} Package
…
data(lc_adsl, lc_adverse_events, lc_biomarkers, lc_demography)

lc_trial <- consolidate(
  list(adsl = lc_adsl,
       adverse_events = lc_adverse_events %>% 
         cohort(on = "usubjid", name = "ae_long"),
       biomarkers = lc_biomarkers,
       demography = lc_demography %>% 
         select(-chemo_stop)
  ),
  on = "usubjid")

lc_trial

# A tibble: 558 × 18
   usubjid best_response       pfs_days pfs_censor os_days os_censor
     <dbl> <chr>                  <dbl>      <dbl>   <dbl>     <dbl>
 1    1003 Stable Disease           101          1     233         1
 2    1005 Complete Response         78          0     184         1
 3    1006 Progressive Disease      253          1     333         1
 4    1009 Partial Response         130          0     643         0
 5    1014 Complete Response         41          1     116         1
 6    1018 Partial Response         194          1     423         1
 7    1023 Stable Disease            49          1     337         1
 8    1025 Stable Disease            95          1     589         1
 9    1030 Complete Response        351          1     688         1
10    1033 Complete Response         33          1     125         1
# … with 548 more rows, and 12 more variables: chemo_stop <chr>,
#   arm <chr>, ae_count <int>, ae_long <list>, egfr_mutation <chr>,
#   smoking <chr>, ecog <chr>, prior_resp <chr>, site_id <int>,
#   sex <chr>, refractory <lgl>, age <dbl>
…
