Wide-to-tall Data Reshaping Using Regular Expressions and the nc Package
…
The code above uses data.table::melt with patterns which takes a
regex used to specify the four columns to reshape. The part and dim
capture columns must be created during a post-processing step. In this
case, the nc code is substantially simpler because the named capture
regular expression was used to specify both the input columns to reshape
and the capture columns to output.

Finally we show how the same reshape operation could be done using the
tidyr package:

> tidyr::pivot_longer(iris, matches(iris.pattern), values_to = "cm",
+   names_to=c("part", "dim"), names_pattern=iris.pattern)

# A tibble: 600 x 4
   Species part  dim       cm
   <fct>   <chr> <chr>  <dbl>
 1 setosa  Sepal Length   5.1
 2 setosa  Sepal Width    3.5
 3 setosa  Petal Length   1.4
 4 setosa  Petal Width    0.2
 5 setosa  Sepal Length   4.9
 6 setosa  Sepal Width    3  
 7 setosa  Petal Length   1.4
 8 setosa  Petal Width    0.2
 9 setosa  Sepal Length   4.7
10 setosa  Sepal Width    3.2
# … with 590 more rows
…
> tidyr::pivot_longer(iris, matches(iris.pattern), values_to = "cm",
+   names_to=c(".value", "dim"), names_pattern=iris.pattern)

# A tibble: 300 x 4
   Species dim    Sepal Petal
   <fct>   <chr>  <dbl> <dbl>
 1 setosa  Length   5.1   1.4
 2 setosa  Width    3.5   0.2
 3 setosa  Length   4.9   1.4
 4 setosa  Width    3     0.2
 5 setosa  Length   4.7   1.3
 6 setosa  Width    3.2   0.2
 7 setosa  Length   4.6   1.5
 8 setosa  Width    3.1   0.2
 9 setosa  Length   5     1.4
10 setosa  Width    3.6   0.2
# … with 290 more rows
…
