The R Journal: SurvDNN: Survival Deep Learning Models for Tabular Data
…
# A tibble: 2 × 2
  metric value
  <chr>  <dbl>
1 cindex 0.745
2 ibs    0.169

The Brier score can also be computed at specific time points (or over a grid, if desired):

times_eval <- seq(min(veteran$time), max(veteran$time), 10)
eval_res <- evaluate_survdnn(mod, metrics = "brier", times = times_eval)
print(eval_res)

# A tibble: 100 × 3
   metric  time    value
   <chr>  <dbl>    <dbl>
 1 brier      1 0.000073
 2 brier     11 0.0880  
 3 brier     21 0.150   
 4 brier     31 0.181   
 5 brier     41 0.192   
 6 brier     51 0.194   
 7 brier     61 0.199   
 8 brier     71 0.198   
 9 brier     81 0.193   
10 brier     91 0.188   
# ℹ 90 more rows
…
