…
### Generating the tour path

Once the tour is initialised with the data and aesthetics, the tour path is defined by piping the output from `detour()` to the `tour_path()` function. Note that `|>` is the pipe operator introduced in R 4.1:

\pagebreak


```r
p <- p |> tour_path(grand_tour(3))
p
```

```
#> # A tibble: 474 x 2
#>   is_new_basis projection_matrix
#>   <lgl>        <list>           
#> 1 TRUE         <dbl [6 x 3]>    
#> 2 FALSE        <dbl [6 x 3]>    
#> 3 FALSE        <dbl [6 x 3]>    
#> 4 FALSE        <dbl [6 x 3]>    
#> 5 FALSE        <dbl [6 x 3]>    
#> # i 469 more rows
```
…
