The R Journal: Bootstrapping Clustered Data in R using lmeresampler
…
a list of length B giving any errors encountered during refitting. An entry will be NULL if no error was encountered.

lmeresampler also provides the extract_parameters() helper function to extract the fixed effects and variance components from merMod and lme objects as a named vector.

Example applications

A two-level example: JSP data

As a first application of the bootstrap for nested LME models, consider the junior school project (JSP) data (Mortimore et al. 1988; Goldstein 2011) that is stored as jsp728 in lmeresampler. The data set is comprised of measurements taken on 728 elementary school students across 48 schools in London.

library(lmeresampler)
tibble::as_tibble(jsp728)

# A tibble: 728 × 9
   mathA…¹ mathA…² gender class school normA…³ normA…⁴ schoo…⁵ mathA…⁶
     <dbl>   <dbl> <fct>  <fct> <fct>    <dbl>   <dbl>   <dbl>   <dbl>
 1      39      36 M      nonm… 1       1.80    1.55      22.4  13.6  
 2      11      19 F      manu… 1      -2.29   -0.980     22.4  -3.42 
 3      32      31 F      manu… 1      -0.0413  0.638     22.4   8.58 
 4      27      23 F      nonm… 1      -0.750  -0.460     22.4   0.579
 5      36      39 F      nonm… 1       0.743   2.15      22.4  16.6  
 6      33      25 M      manu… 1       0.163  -0.182     22.4   2.58 
 7      30      27 M      manu… 1      -0.372   0.0724    22.4   4.58 
 8      17      14 M      manu… 1      -1.63   -1.52      22.4  -8.42 
 9      33      30 M      manu… 1       0.163   0.454     22.4   7.58 
10      20      19 M      manu… 1      -1.40   -0.980     22.4  -3.42 
# … with 718 more rows, and abbreviated variable names ¹​mathAge11,
#   ²​mathAge8, ³​normAge11, ⁴​normAge8, ⁵​schoolMathAge8, ⁶​mathAge8c
…
