The R Journal: Conversations in Time: Interactive Visualization to Explore Structured Temporal Data
…
#> # A tsibble: 64,532 x 5 [1M]
#> # Key:       State, Industry [152]
#>   State                        Industry       Serie…¹    Month Turno…²
#>   <chr>                        <chr>          <chr>      <mth>   <dbl>
#> 1 Australian Capital Territory Cafes, restau… A33498… 1982 Apr     4.4
#> 2 Australian Capital Territory Cafes, restau… A33498… 1982 May     3.4
#> 3 Australian Capital Territory Cafes, restau… A33498… 1982 Jun     3.6
#> 4 Australian Capital Territory Cafes, restau… A33498… 1982 Jul     4  
#> 5 Australian Capital Territory Cafes, restau… A33498… 1982 Aug     3.6
#> # … with 64,527 more rows, and abbreviated variable names
#> #   ¹​`Series ID`, ²​Turnover
…
