brolgar: An R package to BRowse Over Longitudinal Data Graphically and Analytically in R
…
features(<DATA>, <VARIABLE>, <FEATURE>)

or, with the pipe:

<DATA> %>% features(<VARIABLE>, <FEATURE>)

For example, to calculate the minimum height for each key (country), in heights, we specify the heights data, then the variable to calculate features on, height_cm, then the feature to calculate, min (we write c(min = min) so the column calculated gets the name “min”):

heights_min <- features(.tbl = heights_brolgar, 
                        .var = height_cm, 
                        features = c(min = min))

heights_min

# A tibble: 119 × 2
   country       min
   <chr>       <dbl>
 1 Afghanistan  161.
 2 Algeria      166.
 3 Angola       159.
 4 Argentina    167.
 5 Armenia      164.
 6 Australia    170 
 7 Austria      162.
 8 Azerbaijan   170.
 9 Bangladesh   160.
10 Belgium      163.
# … with 109 more rows

We call these summaries features of the data. We can use this information to summarise these features of the data, for example, visualising the distribution of minimum values (Figure 3A).

We are not limited to one feature at a time, many features can also be calculated, for example:

heights_three <- heights_brolgar %>%
  features(height_cm, c(
    min = min,
    median = median,
    max = max
  ))

heights_three

# A tibble: 119 × 4
   country       min median   max
   <chr>       <dbl>  <dbl> <dbl>
 1 Afghanistan  161.   167.  168.
 2 Algeria      166.   169   171.
 3 Angola       159.   167.  169.
 4 Argentina    167.   168.  174.
 5 Armenia      164.   169.  172.
 6 Australia    170    172.  178.
 7 Austria      162.   167.  179.
 8 Azerbaijan   170.   172.  172.
 9 Bangladesh   160.   162.  164.
10 Belgium      163.   166.  177.
# … with 109 more rows
…
Figure 3: Three plots showing the distribution of minimum, median, and maximum values of height in centimeters. Part A shows just the distribution of minimum, part B shows the distribution of minimum, median, and maximum, and part C shows these three values plotted together as a line graph. We see that there is overlap amongst all three statistics. That is, some countries minimum heights are taller than some countries maximum heights.

These sets of features can be pre-specified, for example, brolgar provides a five number summary (minimum, 25th quantile, median, mean, 75th quantile, and maximum) of the data with feat_five_num:

heights_five <- heights_brolgar %>%
  features(height_cm, feat_five_num)

heights_five

# A tibble: 119 × 6
   country       min   q25   med   q75   max
   <chr>       <dbl> <dbl> <dbl> <dbl> <dbl>
 1 Afghanistan  161.  164.  167.  168.  168.
 2 Algeria      166.  168.  169   170.  171.
 3 Angola       159.  160.  167.  168.  169.
 4 Argentina    167.  168.  168.  170.  174.
 5 Armenia      164.  166.  169.  172.  172.
 6 Australia    170   171.  172.  173.  178.
 7 Austria      162.  164.  167.  169.  179.
 8 Azerbaijan   170.  171.  172.  172.  172.
 9 Bangladesh   160.  162.  162.  163.  164.
10 Belgium      163.  164.  166.  168.  177.
# … with 109 more rows
…
If you want to run many or all features from a package on your data you can collect them all with feature_set. For example:

library(fabletools)
feat_set_brolgar <- feature_set(pkgs = "brolgar")
length(feat_set_brolgar)

[1] 6

You could then run these like so:

heights_brolgar %>%
  features(height_cm, feat_set_brolgar)

# A tibble: 119 × 46
   country     min...1 med...2 max...3 min...4 q25...5 med...6 q75...7
   <chr>         <dbl>   <dbl>   <dbl>   <dbl>   <dbl>   <dbl>   <dbl>
 1 Afghanistan    161.    167.    168.    161.    164.    167.    168.
 2 Algeria        166.    169     171.    166.    168.    169     170.
 3 Angola         159.    167.    169.    159.    160.    167.    168.
 4 Argentina      167.    168.    174.    167.    168.    168.    170.
 5 Armenia        164.    169.    172.    164.    166.    169.    172.
 6 Australia      170     172.    178.    170     171.    172.    173.
 7 Austria        162.    167.    179.    162.    164.    167.    169.
 8 Azerbaijan     170.    172.    172.    170.    171.    172.    172.
 9 Bangladesh     160.    162.    164.    160.    162.    162.    163.
10 Belgium        163.    166.    177.    163.    164.    166.    168.
# … with 109 more rows, and 38 more variables: max...8 <dbl>,
#   min...9 <dbl>, max...10 <dbl>, range_diff...11 <dbl>,
#   iqr...12 <dbl>, var...13 <dbl>, sd...14 <dbl>, mad...15 <dbl>,
#   iqr...16 <dbl>, min...17 <dbl>, max...18 <dbl>, median <dbl>,
#   mean <dbl>, q25...21 <dbl>, q75...22 <dbl>, range1 <dbl>,
#   range2 <dbl>, range_diff...25 <dbl>, sd...26 <dbl>,
#   var...27 <dbl>, mad...28 <dbl>, iqr...29 <dbl>, …
…
To create your own features or summaries to pass to features, you provide a named vector of functions. These can include functions that you have written yourself. For example, returning the first three elements of a series, by writing our own second and third functions.

second <- function(x) nth(x, n = 2)
third <- function(x) nth(x, n = 3)

feat_first_three <- c(first = first,
                      second = second,
                      third = third)

These are then passed to features like so:

heights_brolgar %>%
  features(height_cm, feat_first_three)

# A tibble: 119 × 4
   country     first second third
   <chr>       <dbl>  <dbl> <dbl>
 1 Afghanistan  168.   166.  167.
 2 Algeria      169.   166.  169 
 3 Angola       160.   159.  160.
 4 Argentina    170.   168.  168 
 5 Armenia      169.   168.  166.
 6 Australia    170    171.  170.
 7 Austria      165.   163.  162.
 8 Azerbaijan   170.   171.  171.
 9 Bangladesh   162.   162.  164.
10 Belgium      163.   164.  164 
# … with 109 more rows
…
index_summary(heights_brolgar)

   Min. 1st Qu.  Median    Mean 3rd Qu.    Max. 
   1710    1782    1855    1855    1928    2000 

index_regular(heights_brolgar)

[1] TRUE

We can explore how many observations per country by counting the number of observations with features, like so:

heights_brolgar %>% features(year, n_obs)

# A tibble: 119 × 2
   country     n_obs
   <chr>       <int>
 1 Afghanistan     5
 2 Algeria         5
 3 Angola          9
 4 Argentina      20
 5 Armenia        11
 6 Australia      10
 7 Austria        18
 8 Azerbaijan      7
 9 Bangladesh      9
10 Belgium        10
# … with 109 more rows

This can be further summarised by counting the number of times there are a given number of observations:

heights_brolgar %>% features(year, n_obs) %>% count(n_obs)

# A tibble: 24 × 2
   n_obs     n
   <int> <int>
 1     5    11
 2     6    11
 3     7    13
 4     8     5
 5     9    12
 6    10    12
 7    11     9
 8    12     4
 9    13     7
10    14     6
# … with 14 more rows

Because we are exploring the temporal patterns, we cannot reliably say anything about those individuals with few measurements. The data used, heights_brolgar has less than 5 measurements. This was done using add_n_obs(), which adds the number of observations to the existing data. Overall this drops 25 countries, leaves us with 119 out of the original 144 countries.

heights_brolgar <- heights %>% 
  add_n_obs() %>% 
  filter(n_obs >= 5)

We can further explore when countries are first being measured using features to find the first year for each country number of starting years with the first function from dplyr, and explore this with a visualisation (Figure 7).

heights_brolgar %>% 
  features(year, c(first = first))

# A tibble: 119 × 2
   country     first
   <chr>       <dbl>
 1 Afghanistan  1870
 2 Algeria      1910
 3 Angola       1790
 4 Argentina    1770
 5 Armenia      1850
 6 Australia    1850
 7 Austria      1750
 8 Azerbaijan   1850
 9 Bangladesh   1850
10 Belgium      1810
# … with 109 more rows
…
Figure 7: Distribution of starting years of measurement. The data is already binned into 10 year blocks. Most of the years start between 1840 and 1900.

We can explore the variation in first year using feat_diff_summary. This combines many summaries of the differences in year.

heights_diffs <- heights_brolgar %>% 
  features(year, feat_diff_summary)

heights_diffs

# A tibble: 119 × 10
   country     diff_…¹ diff_…² diff_…³ diff_…⁴ diff_…⁵ diff_…⁶ diff_…⁷
   <chr>         <dbl>   <dbl>   <dbl>   <dbl>   <dbl>   <dbl>   <dbl>
 1 Afghanistan      10      10      30    32.5    55.8      60   692. 
 2 Algeria          10      10      10    22.5    39.2      60   625  
 3 Angola           10      10      10    17.5    10        70   450  
 4 Argentina        10      10      10    11.6    10        40    47.4
 5 Armenia          10      10      10    15      20.8      30    72.2
 6 Australia        10      10      10    13.3    10        40   100  
 7 Austria          10      10      10    13.5    10        40    74.3
 8 Azerbaijan       10      10      10    25      25.8      90  1030  
 9 Bangladesh       10      10      10    18.8    15.8      70   441. 
10 Belgium          10      10      10    16.7    23.3      40   125  
# … with 109 more rows, 2 more variables: diff_sd <dbl>,
#   diff_iqr <dbl>, and abbreviated variable names ¹​diff_min,
#   ²​diff_q25, ³​diff_median, ⁴​diff_mean, ⁵​diff_q75, ⁶​diff_max,
#   ⁷​diff_var

This is particularly useful as using diff on year would return a very wide dataset that is hard to explore:

heights_brolgar %>% 
  features(year, diff)

# A tibble: 119 × 30
   country  ...1  ...2  ...3  ...4  ...5  ...6  ...7  ...8  ...9 ...10
   <chr>   <dbl> <dbl> <dbl> <dbl> <dbl> <dbl> <dbl> <dbl> <dbl> <dbl>
 1 Afghan…    10    50    60    10    NA    NA    NA    NA    NA    NA
 2 Algeria    10    10    60    10    NA    NA    NA    NA    NA    NA
 3 Angola     10    10    70    10    10    10    10    10    NA    NA
 4 Argent…    10    10    10    10    10    10    10    10    10    10
 5 Armenia    10    30    10    10    30    20    10    10    10    10
 6 Austra…    10    10    10    10    10    10    10    40    10    NA
 7 Austria    20    10    10    30    10    10    10    10    10    10
 8 Azerba…    10    90    10    10    10    20    NA    NA    NA    NA
 9 Bangla…    10    10    10    70    10    20    10    10    NA    NA
10 Belgium    10    10    10    10    10    10    30    40    20    NA
# … with 109 more rows, and 19 more variables: ...11 <dbl>,
#   ...12 <dbl>, ...13 <dbl>, ...14 <dbl>, ...15 <dbl>, ...16 <dbl>,
#   ...17 <dbl>, ...18 <dbl>, ...19 <dbl>, ...20 <dbl>, ...21 <dbl>,
#   ...22 <dbl>, ...23 <dbl>, ...24 <dbl>, ...25 <dbl>, ...26 <dbl>,
#   ...27 <dbl>, ...28 <dbl>, ...29 <dbl>
…
Join this table back to the data to get all observations for those keys

Arrange the keys or filter, using the feature

Display the data for selected keys

This workflow is now demonstrated. Firstly, we decide on an interesting feature, “maximum height”, and whether height is always increasing. We calculate our own “feature”, calculating maximum height, and whether a value is increasing (with brolgar’s increasing function) as follows:

heights_max_in <- heights_brolgar %>% 
  features(height_cm, list(max = max,
                           increase = increasing))

heights_max_in

# A tibble: 119 × 3
   country       max increase
   <chr>       <dbl> <lgl>   
 1 Afghanistan  168. FALSE   
 2 Algeria      171. FALSE   
 3 Angola       169. FALSE   
 4 Argentina    174. FALSE   
 5 Armenia      172. FALSE   
 6 Australia    178. FALSE   
 7 Austria      179. FALSE   
 8 Azerbaijan   172. FALSE   
 9 Bangladesh   164. FALSE   
10 Belgium      177. FALSE   
# … with 109 more rows
…
Figure 9: The different distributions of the features - A is depicting the distribution of maximum height, and B displays the number of countries that are always increasing (FALSE), and always increasing (TRUE). We note that the average maximum heights range from about 160cm to 185cm, with most being around 170cm. We also learn that the vast majority of countries are not always increasing in height through time.

We can now join this table back to the data to get all observations for those keys to move from one key per row to all many rows per key.

heights_max_in_full <- heights_max_in %>% 
  left_join(heights_brolgar,
            by = "country")

heights_max_in_full

# A tibble: 1,406 × 9
   country       max incre…¹  year n_obs conti…² heigh…³ year0 count…⁴
   <chr>       <dbl> <lgl>   <dbl> <int> <chr>     <dbl> <dbl> <fct>  
 1 Afghanistan  168. FALSE    1870     5 Asia       168.   160 Afghan…
 2 Afghanistan  168. FALSE    1880     5 Asia       166.   170 Afghan…
 3 Afghanistan  168. FALSE    1930     5 Asia       167.   220 Afghan…
 4 Afghanistan  168. FALSE    1990     5 Asia       167.   280 Afghan…
 5 Afghanistan  168. FALSE    2000     5 Asia       161.   290 Afghan…
 6 Algeria      171. FALSE    1910     5 Africa     169.   200 Algeria
 7 Algeria      171. FALSE    1920     5 Africa     166.   210 Algeria
 8 Algeria      171. FALSE    1930     5 Africa     169    220 Algeria
 9 Algeria      171. FALSE    1990     5 Africa     171.   280 Algeria
10 Algeria      171. FALSE    2000     5 Africa     170.   290 Algeria
# … with 1,396 more rows, and abbreviated variable names ¹​increase,
#   ²​continent, ³​height_cm, ⁴​country_fct

We can then arrange the keys or filter, using the feature, for example, filtering only those countries that are only increasing:

heights_increase <- heights_max_in_full %>% filter(increase)
heights_increase

# A tibble: 22 × 9
   country    max increase  year n_obs continent heigh…¹ year0 count…²
   <chr>    <dbl> <lgl>    <dbl> <int> <chr>       <dbl> <dbl> <fct>  
 1 Honduras  168. TRUE      1950     6 Americas     164.   240 Hondur…
 2 Honduras  168. TRUE      1960     6 Americas     164.   250 Hondur…
 3 Honduras  168. TRUE      1970     6 Americas     165.   260 Hondur…
 4 Honduras  168. TRUE      1980     6 Americas     165.   270 Hondur…
 5 Honduras  168. TRUE      1990     6 Americas     165.   280 Hondur…
 6 Honduras  168. TRUE      2000     6 Americas     168.   290 Hondur…
 7 Moldova   174. TRUE      1840     5 Europe       165.   130 Moldova
 8 Moldova   174. TRUE      1950     5 Europe       172.   240 Moldova
 9 Moldova   174. TRUE      1960     5 Europe       173.   250 Moldova
10 Moldova   174. TRUE      1970     5 Europe       174.   260 Moldova
# … with 12 more rows, and abbreviated variable names ¹​height_cm,
#   ²​country_fct
…
Figure 12: Five number summary of residual values from the model fit. The residuals are centered around zero with some variation.

We can do this using keys_near() from brolgar. By default this uses the 5 number summary, but any function can be used. You specify the variable you want to find the keys nearest, in this case rss, residual sums of squares for each key:

keys_near(heights_aug, var = rss)

# A tibble: 62 × 5
   country   rss stat  stat_value stat_diff
   <chr>   <dbl> <fct>      <dbl>     <dbl>
 1 Denmark  9.54 med         9.54         0
 2 Denmark  9.54 med         9.54         0
 3 Denmark  9.54 med         9.54         0
 4 Denmark  9.54 med         9.54         0
 5 Denmark  9.54 med         9.54         0
 6 Denmark  9.54 med         9.54         0
 7 Denmark  9.54 med         9.54         0
 8 Denmark  9.54 med         9.54         0
 9 Denmark  9.54 med         9.54         0
10 Denmark  9.54 med         9.54         0
# … with 52 more rows
…
