…
  `get_all_factors()`                finds all factor pairs for a given integer.
  --------------------------------------------------------------------------------------------------------------------------------------------------------------------------------------------------------------------------

  : Table 1: *anomalyDetection* Functions
:::

[]{#tab:tab1 label="tab:tab1"}

``` r
library(tidyverse)
library(anomalyDetection)

security_logs
# A tibble: 300 × 10
#   Device_Vendor Device_Product Device_Action          Src_IP
#           <chr>          <chr>         <chr>           <chr>
# 1         McAfee            NSP       Attempt   223.70.128.61
# 2          CISCO            ASA       Failure 174.110.206.174
# 3            IBM          SNIPS       Success 174.110.206.174
# 4         McAfee            NSP       Success   227.12.127.87
# 5        Juniper            SRX       Success     28.9.24.154
# 6         McAfee            NSP       Success     28.9.24.154
# 7         McAfee            NSP       Attempt     28.9.24.154
# 8         McAfee            ePO       Attempt   223.70.128.61
# 9         McAfee            ePO       Attempt 174.110.206.174
# 10         CISCO            ASA       Attempt   227.12.127.87
# ... with 290 more rows, and 6 more variables: Dst_IP <chr>,
#   Src_Port <int>, Dst_Port <int>, Protocol <chr>, Country_Src <chr>,
#   Bytes_TRF <int>
```
…
Thus, for our `security_logs` data we can create our state vector matrix
based on our data being divided into 10 time blocks. What results is the
summary of instances for each categorical level in our data for each
time block. Consequently, row one represents the first time block and
there were 2 instances of CISCO as the device vendor, 1 instance of IBM,
etc. By adjusting the `block_length`, `level_limit`, and `level_keep`
arguments, the user can refine the level of aggregation and variables to
retain and analyze.

``` r
tabulate_state_vector(security_logs, 10)
# A tibble: 30 × 43
#   CISCO   IBM Juniper McAfee `Palo Alto Networks`   NA1   ASA   ePO
#   <int> <int>   <int>  <int>                <int> <int> <int> <int>
# 1      2     1       1      6                    0     0     2     2
# 2      0     2       4      2                    2     0     0     2
# 3      2     4       2      2                    0     0     2     2
# 4      5     1       2      1                    1     0     5     1
# 5      3     1       1      3                    2     0     3     1
# 6      2     1       2      4                    1     0     2     1
# 7      2     2       1      3                    2     0     2     0
# 8      3     3       1      3                    0     0     3     2
# 9      0     1       4      3                    2     0     0     1
# 10     2     2       2      4                    0     0     2     3
# ... with 20 more rows, and 35 more variables: Firewall <int>, NSP <int>,
#   SNIPS <int>, SRX <int>, NA2 <int>, Attempt <int>, Failure <int>,
#   Success <int>, NA3 <int>, `174.110.206.174` <int>,
#   `223.70.128.61` <int>, `227.12.127.87` <int>, `28.9.24.154` <int>,
#   `89.130.69.91` <int>, NA4 <int>, `145.114.4.203` <int>,
#   `151.194.233.198` <int>, `219.142.109.8` <int>, `32.73.26.223` <int>,
#   `56.137.121.203` <int>, NA5 <int>, TCP <int>, UDP <int>, NA6 <int>,
#   China <int>, India <int>, Korea <int>, Netherlands <int>,
#   Russia <int>, `United Kingdom` <int>, US <int>, NA7 <int>,
…
``` r
(state_vec <- security_logs %>%
  tabulate_state_vector(10) %>%
  mc_adjust())
# A tibble: 30 × 26
#   CISCO   IBM Juniper McAfee `Palo Alto Networks`   ePO Attempt Failure
#   <int> <int>   <int>  <int>                <int> <int>   <int>   <int>
# 1      2     1       1      6                    0     2       5       1
# 2      0     2       4      2                    2     2       4       2
# 3      2     4       2      2                    0     2       3       3
# 4      5     1       2      1                    1     1       0       5
# 5      3     1       1      3                    2     1       3       3
# 6      2     1       2      4                    1     1       4       1
# 7      2     2       1      3                    2     0       3       3
# 8      3     3       1      3                    0     2       6       2
# 9      0     1       4      3                    2     1       4       4
# 10     2     2       2      4                    0     3       3       0
# ... with 20 more rows, and 18 more variables: `174.110.206.174` <int>,
#   `223.70.128.61` <int>, `227.12.127.87` <int>, `28.9.24.154` <int>,
#   `145.114.4.203` <int>, `151.194.233.198` <int>, `219.142.109.8` <int>,
#   `32.73.26.223` <int>, TCP <int>, China <int>, India <int>,
#   Korea <int>, Netherlands <int>, Russia <int>, `United Kingdom` <int>,
#   Src_Port <int>, Dst_Port <int>, Bytes_TRF <int>
```
…
$$MD = \sqrt{(x - \bar{x})C^{-1}(x-\bar{x})} \tag{1}$$

where $x$ is a vector of $p$ observations, $x=(x_1, \dots, x_p)$,
$\bar{x}$ is the mean vector of the data,
$\bar{x}=(\bar{x}_1, \dots, \bar{x}_p)$, and $C^{-1}$ is the inverse
data covariance matrix. Here, we include `output = "both"` to return
both the Mahalanobis distance and the absolute breakdown distances and
`normalize = TRUE` so that we can compare relative magnitudes across our
data.

``` r
state_vec %>%
  mahalanobis_distance("both", normalize = TRUE) %>%
  as_tibble
# A tibble: 30 × 27
#           MD    CISCO_BD      IBM_BD  Juniper_BD   McAfee_BD
#        <dbl>       <dbl>       <dbl>       <dbl>       <dbl>
# 1  0.4548638 0.005536981 0.013005457 0.016020254 0.021822626
# 2  4.3843567 0.024664733 0.005573767 0.044055697 0.008985787
# 3  0.3604934 0.005536981 0.042732214 0.004005063 0.008985787
# 4  0.8456701 0.050839552 0.013005457 0.004005063 0.016687890
# 5  3.3541555 0.020637838 0.013005457 0.016020254 0.001283684
# 6  1.0900635 0.005536981 0.013005457 0.004005063 0.006418419
# 7  0.6769615 0.005536981 0.005573767 0.016020254 0.001283684
# 8  0.6968967 0.020637838 0.024152991 0.016020254 0.001283684
# 9  0.9910771 0.024664733 0.013005457 0.044055697 0.001283684
# 10 5.7822393 0.005536981 0.005573767 0.004005063 0.006418419
# ... with 20 more rows, and 22 more variables: `Palo Alto
#   Networks_BD` <dbl>, ePO_BD <dbl>, Attempt_BD <dbl>, Failure_BD <dbl>,
#   `174.110.206.174_BD` <dbl>, `223.70.128.61_BD` <dbl>,
#   `227.12.127.87_BD` <dbl>, `28.9.24.154_BD` <dbl>,
#   `145.114.4.203_BD` <dbl>, `151.194.233.198_BD` <dbl>,
#   `219.142.109.8_BD` <dbl>, `32.73.26.223_BD` <dbl>, TCP_BD <dbl>,
#   China_BD <dbl>, India_BD <dbl>, Korea_BD <dbl>, Netherlands_BD <dbl>,
#   Russia_BD <dbl>, `United Kingdom_BD` <dbl>, Src_Port_BD <dbl>,
#   Dst_Port_BD <dbl>, Bytes_TRF_BD <dbl>
```
…
For easy access to these results we can use the
`factor_analysis_results()` parsing function. The
`factor_analysis_results()` function will parse the results either by
their list name or by location. For instance to extract the rotated
factor scores you can use
`factor_analysis_results(data, results = fa_scores_rotated)` or
`factor_analysis_results(data, results = 4)` as demonstrated below.

``` r
state_vec %>%
  horns_curve() %>%
  factor_analysis(state_vec, hc_points = .) %>%
  factor_analysis_results(4) %>%
  as_tibble
# A tibble: 30 × 11
#             V1         V2         V3          V4          V5         V6
#          <dbl>      <dbl>      <dbl>       <dbl>       <dbl>      <dbl>
# 1  -0.362674625  0.3348386  0.6915550  0.08187007 -0.09327471  1.6577954
# 2  -0.006043119 -0.4959245 -1.7713249  1.48113530  0.75941566  0.4949437
# 3   0.783216952 -0.8394997 -0.4961150  1.31512814  0.97310016 -0.4546721
# 4   0.462460483  1.3648730 -0.1082969 -2.54886990 -0.42566777 -1.9486609
# 5   0.175061099 -0.8789010  1.2417347 -0.36983659  1.55454286 -0.5180766
# 6  -0.207615911  1.2025271  0.2300188  0.40146898  1.23209508  0.3752129
# 7   0.731099082 -1.9734310 -0.9490889 -0.62509695  1.04029889 -0.3571424
# 8   0.030558029 -1.2308883  1.1503857  0.08635927 -1.60839067  1.9569930
# 9   0.265720779 -0.0830922 -1.7467551 -0.13258281  0.47299019 -0.4580762
# 10 -0.875234891 -1.5917696  0.8289798 -1.23316029  1.25799551  0.3656262
# ... with 20 more rows, and 5 more variables: V7 <dbl>, V8 <dbl>,
#   V9 <dbl>, V10 <dbl>, V11 <dbl>
```
…
For easy access to these results we can use the
`principal_components_result` parsing function. The
`principal_components_result` will parse the results either by their
list name or by location. For example, to extract the computed component
scores as outlined in Eq. 8 you can use
`principal_components_result(data, results = pca_rotated)` or
`principal_components_result(data, results = 3)` as demonstrated below.

``` r
state_vec %>%
  principal_components() %>%
  principal_components_result(pca_rotated) %>%
  as_tibble
# A tibble: 30 × 26
#          PC1        PC2       PC3        PC4        PC5        PC6
#        <dbl>      <dbl>     <dbl>      <dbl>      <dbl>      <dbl>
# 1    1326.436 -285.25443  36.72628  3.2968478 -0.2977835 -1.3016917
# 2   20404.603  420.02358 236.94988  3.8917064  2.1798436  2.4849683
# 3    1884.370 -229.68499  45.39825  1.2682210  2.4212424  1.2380853
# 4    1555.892  171.11547 116.14809 -6.0588320 -0.5539837 -0.1773544
# 5  -37890.373 -470.91871  55.73837 -0.9419323 -0.3674156 -0.7529821
# 6  -19041.547 -307.40718 -44.48265  0.3985038 -1.2587089 -2.3739508
# 7  -19117.070  130.64729  30.69814 -2.1478778  3.1516592  1.0870282
# 8   21346.072   35.75772  12.44375  1.5784997  2.8835997 -2.4794129
# 9  -18901.619 -251.41102  55.19655  0.1510258 -0.3283588  4.0431385
# 10 -37321.917 -848.69603 -77.71478  2.1905376  2.3692681 -0.3439843
# ... with 20 more rows, and 20 more variables: PC7 <dbl>, PC8 <dbl>,
#   PC9 <dbl>, PC10 <dbl>, PC11 <dbl>, PC12 <dbl>, PC13 <dbl>, PC14 <dbl>,
#   PC15 <dbl>, PC16 <dbl>, PC17 <dbl>, PC18 <dbl>, PC19 <dbl>,
#   PC20 <dbl>, PC21 <dbl>, PC22 <dbl>, PC23 <dbl>, PC24 <dbl>,
#   PC25 <dbl>, PC26 <dbl>
```
…
