The R Journal: Towards a Grammar for Processing Clinical Trial Data
…
library(readr)

adakiep <- read_csv("adakiep.csv") 
adakiep

# A tibble: 24 × 8
   USUBJID     PARAM      PARAMCD AVALC   ADY ADT        SRCDOM SRCSEQ
   <chr>       <chr>      <chr>   <chr> <dbl> <date>     <chr>   <dbl>
 1 XYZ-001-001 Death      DEATH   Y        85 2013-11-02 DS          1
 2 XYZ-001-001 Dialysis   DIALYS… Y        80 2013-10-29 PR          2
 3 XYZ-001-001 eGFR 25 P… EGFRDEC N        85 2013-11-02 <NA>       NA
 4 XYZ-001-001 Composite… AKIEP   Y        80 2013-10-29 <NA>       NA
 5 XYZ-001-002 Death      DEATH   Y        82 2015-03-20 DS          1
 6 XYZ-001-002 Dialysis   DIALYS… Y        73 2015-03-11 PR          2
 7 XYZ-001-002 eGFR 25 P… EGFRDEC N        82 2015-03-20 <NA>       NA
 8 XYZ-001-002 Composite… AKIEP   Y        73 2015-03-11 <NA>       NA
 9 XYZ-001-003 Death      DEATH   N        94 2010-10-12 DS          1
10 XYZ-001-003 Dialysis   DIALYS… Y        64 2010-09-12 PR          2
# … with 14 more rows
…
SAS ADaM formatted data sets generally include extra information about variables, including a short description of each of the variables and possibly formatting information. The haven package keeps this as attributes of each of the columns of a tibble that is read from these files. The forceps package is capable of extracting this meta-information to create a tibble that can be used as a data dictionary using the consolidated_describe_data() function, shown below. In practice, we have found it helpful as a starting for a fuller description of the data and often add columns to further categorize individual variables for analyses.

library(forceps)

data(lc_adverse_events)
data(lc_biomarkers)
data(lc_demography)
data(lc_adsl)

consolidated_describe_data(lc_adverse_events,
                           lc_biomarkers,
                           lc_demography,
                           lc_adsl)

# A tibble: 27 × 5
   var_name      type      label              format_sas data_source  
   <chr>         <chr>     <chr>              <chr>      <chr>        
 1 usubjid       double    Randomization Code <NA>       lc_adverse_e…
 2 ae            character AE Preferred Term  character  lc_adverse_e…
 3 ae_type       character System Organ Clas… character  lc_adverse_e…
 4 grade         integer   Adverse Event Gra… numeric    lc_adverse_e…
 5 ae_day        double    Days From First D… <NA>       lc_adverse_e…
 6 ae_duration   double    Adverse Event Dur… numeric    lc_adverse_e…
 7 ae_treat      logical   Was the Adverse E… logical    lc_adverse_e…
 8 ae_count      integer   Total Patient Adv… integer    lc_adverse_e…
 9 usubjid       double    Randomization Code <NA>       lc_biomarkers
10 egfr_mutation character EGFR Mutation +ve… character  lc_biomarkers
# … with 17 more rows
…
data(lc_adsl)
data(lc_biomarkers)
data(lc_demography)
data_list <- list(demography = lc_demography, 
                  biomarkers = lc_biomarkers, 
                  adverse_events = lc_adverse_events, 
                  adsl = lc_adsl)
duplicated_vars(data_list, on = "usubjid")

$chemo_stop
# A tibble: 558 × 4
   usubjid var        demography            adsl                 
     <dbl> <chr>      <chr>                 <chr>                
 1    1003 chemo_stop patient discontinued  adverse events       
 2    1005 chemo_stop treatment ineffective adverse events       
 3    1006 chemo_stop <NA>                  treatment ineffective
 4    1009 chemo_stop treatment ineffective <NA>                 
 5    1014 chemo_stop <NA>                  adverse events       
 6    1018 chemo_stop treatment ineffective treatment ineffective
 7    1023 chemo_stop <NA>                  adverse events       
 8    1025 chemo_stop adverse events        adverse events       
 9    1030 chemo_stop adverse events        adverse events       
10    1033 chemo_stop adverse events        treatment ineffective
# … with 548 more rows

data_list$demography <- data_list$demography %>% 
  select(-chemo_stop)

Consolidating

The last step is to consolidate the data sets into a single one. This is accomplished by reducing the data_list using full joins, along with some extra checking. The consolidate() function wraps this functionality. The result, conforming to the provided format, which can easily be used in the exploration and analysis stage.

consolidate(data_list, on = "usubjid")

# A tibble: 558 × 18
   usubjid site_id sex    refractory   age egfr_mutation smoking ecog 
     <dbl>   <int> <chr>  <lgl>      <dbl> <chr>         <chr>   <chr>
 1    1003       1 male   FALSE         51 negative      former… ambu…
 2    1005       4 female TRUE          44 negative      former… ambu…
 3    1006       2 male   TRUE          22 negative      former… ambu…
 4    1009       8 male   FALSE         44 <NA>          unknown ambu…
 5    1014       6 male   TRUE          76 <NA>          former… ambu…
 6    1018      10 female TRUE          35 positive      former… ambu…
 7    1023       6 female TRUE          73 <NA>          former… ambu…
 8    1025       7 male   FALSE         71 <NA>          never … ambu…
 9    1030       5 female TRUE          20 <NA>          unknown ambu…
10    1033       6 female TRUE          55 <NA>          unknown ambu…
# … with 548 more rows, and 10 more variables: prior_resp <chr>,
#   ae_count <int>, ae_long <list>, best_response <chr>,
#   pfs_days <dbl>, pfs_censor <dbl>, os_days <dbl>, os_censor <dbl>,
#   chemo_stop <chr>, arm <chr>
…
