The R Journal: akc: A Tidy Framework for Automatic Knowledge Classification in R
…
4 Example

This section shows how akc can be used in a real case. A collection of bibliometric data of R Journal from 2009 to 2021 is used in this example. The data of this example can be accessed in the GitHub repository. Only the akc package is used in this workflow. First, we would load the package and import the data in the R environment.

library (akc)
rj_bib = readRDS ("./rj_bib.rds")
rj_bib

# A tibble: 568 × 4
      id title                                           abstr…¹  year
   <int> <chr>                                           <chr>   <dbl>
 1     1 Aspects of the Social Organization and Traject… Based …  2009
 2     2 asympTest: A Simple R Package for Classical Pa… asympT…  2009
 3     3 ConvergenceConcepts: An R Package to Investiga… Conver…  2009
 4     4 copas: An R package for Fitting the Copas Sele… This a…  2009
 5     5 Party on!                                       Random…  2009
 6     6 Rattle: A Data Mining GUI for R                 Data m…  2009
 7     7 sos: Searching Help Pages of R Packages         The so…  2009
 8     8 The New R Help System                           Versio…  2009
 9     9 Transitioning to R: Replicating SAS, Stata, an… Statis…  2009
10    10 Bayesian Estimation of the GARCH(1,1) Model wi… This n…  2010
# … with 558 more rows, and abbreviated variable name ¹​abstract

rj_bib is a data frame with four columns, including id (Paper ID), title (Title of paper), abstract (Abstract of paper) and year (Publication year of paper). Papers in R Journal do not contain a keyword field, thus we have to extract the keywords from the title or abstract field (first step in Figure 1). Here in our case, we use the abstract field as our data source. In addition, we need a user-defined dictionary to extract the keywords, otherwise all the n-grams (meaningful or meaningless) would be extracted and the results would include redundant noise.

# import the user-defined dictionary
rj_user_dict = readRDS ("./rj_user_dict.rds")
rj_user_dict

# A tibble: 627 × 1
   keyword            
   <chr>              
 1 seasonal-adjustment
 2 unit roots         
 3 transformations    
 4 decomposition      
 5 combination        
 6 integration        
 7 competition        
 8 regression         
 9 accuracy           
10 symmetry           
# … with 617 more rows
…
