akc: A Tidy Framework for Automatic Knowledge Classification in R
…
Example

This section shows how akc can be used in a
real case. A collection of bibliometric data of R Journal from
2009 to 2021 is used in this example. The data of this example can be
accessed in the GitHub
repository. Only the akc package is used in
this workflow. First, we would load the package and import the data in
the R environment.

library (akc)
rj_bib = readRDS ("./rj_bib.rds")
rj_bib

# A tibble: 568 x 4
      id title                                          abstract  year
   <int> <chr>                                          <chr>    <dbl>
 1     1 Aspects of the Social Organization and Trajec~ Based p~  2009
 2     2 asympTest: A Simple R Package for Classical P~ asympTe~  2009
 3     3 ConvergenceConcepts: An R Package to Investig~ Converg~  2009
 4     4 copas: An R package for Fitting the Copas Sel~ This ar~  2009
 5     5 Party on!                                      Random ~  2009
 6     6 Rattle: A Data Mining GUI for R                Data mi~  2009
 7     7 sos: Searching Help Pages of R Packages        The sos~  2009
 8     8 The New R Help System                          Version~  2009
 9     9 Transitioning to R: Replicating SAS, Stata, a~ Statist~  2009
10    10 Bayesian Estimation of the GARCH(1,1) Model w~ This no~  2010
# ... with 558 more rows
…
# import the user-defined dictionary
rj_user_dict = readRDS ("./rj_user_dict.rds")
rj_user_dict

# A tibble: 627 x 1
   keyword            
   <chr>              
 1 seasonal-adjustment
 2 unit roots         
 3 transformations    
 4 decomposition      
 5 combination        
 6 integration        
 7 competition        
 8 regression         
 9 accuracy           
10 symmetry           
# ... with 617 more rows
…
